%YAML 1.1
%TAG !u! tag:unity3d.com,2011:
--- !u!1045 &1
EditorBuildSettings:
  m_ObjectHideFlags: 0
  serializedVersion: 2
  m_Scenes:
  - enabled: 1
    path: Assets/_Scenes/Start Menu.unity
  - enabled: 1
    path: Assets/_Scenes/Level_01.unity
  - enabled: 1
    path: Assets/_Scenes/Level_02.unity
  - enabled: 1
    path: Assets/_Scenes/Level_03.unity
  - enabled: 1
    path: Assets/_Scenes/Level_04.unity
  - enabled: 1
    path: Assets/_Scenes/Win Screen.unity
